%YAML 1.1
%TAG !u! tag:unity3d.com,2011:
--- !u!1045 &1
EditorBuildSettings:
  m_ObjectHideFlags: 0
  serializedVersion: 2
  m_Scenes:
  - enabled: 1
    path: Assets/_Scenes/Logo.unity
    guid: 88c48f142dfc148498d5646e203ccf8b
  - enabled: 1
    path: Assets/_Scenes/Menu.unity
    guid: a487c59f4772eb44d8fc78ca3382aac8
  - enabled: 1
    path: Assets/_Scenes/Level1.unity
    guid: ec908cebcf4dcd149a138b2013dd9558
  - enabled: 1
    path: Assets/_Scenes/Level2.unity
    guid: d08113ae533ebcc4b8a8d8043d27c61a
  - enabled: 1
    path: Assets/_Scenes/Level3.unity
    guid: d008ac092105e9a4289e1b05550a82ac
  - enabled: 1
    path: Assets/_Scenes/Level4.unity
    guid: 5de6ff59e5bcd7b49b333836febcabed
  - enabled: 1
    path: Assets/_Scenes/Level5.unity
    guid: ef08520088b63a249acf9ca19cf21284
  - enabled: 1
    path: Assets/_Scenes/Level6.unity
    guid: f94adba72e227c940bc0fed168b03e15
  - enabled: 1
    path: Assets/_Scenes/Level7.unity
    guid: d316be8558817804ebdfa965a9e7e930
  - enabled: 1
    path: Assets/_Scenes/Level8.unity
    guid: cdc42ee2c5e08e748a69ae82b72ada76
  - enabled: 1
    path: Assets/_Scenes/Level9.unity
    guid: 490a4b3a4a99d84428d4296516f9bd67
  - enabled: 1
    path: Assets/_Scenes/Level10.unity
    guid: 453fb1b9cb92a074298dc933118af530
  - enabled: 1
    path: Assets/_Scenes/Level11.unity
    guid: 332822c445e487f47bf86adfd190ba85
  - enabled: 1
    path: Assets/_Scenes/Level12.unity
    guid: 24cb3aa8fe01cbc469d4b97840657422
  - enabled: 1
    path: Assets/_Scenes/Level13.unity
    guid: 91a1228ca7ab14241b8391c26c6cb747
  - enabled: 1
    path: Assets/_Scenes/Level14.unity
    guid: 24c3b3d059be56e4b9c4a2d39882882e
  - enabled: 1
    path: Assets/_Scenes/Level15.unity
    guid: 61c8a0642b930474984ca149d296958e
